{ "photos": { "page": 1, "pages": 20, "perpage": 50, "total": "1000",
    "photo": [
      { "id": "27953088377", "owner": "146200254@N03", "secret": "f9acddf5c4", "server": "1732", "farm": 2, "title": "Wonderful Budapest! 😌", "ispublic": 1, "isfriend": 0, "isfamily": 0, "url_s": "https:\/\/farm2.staticflickr.com\/1732\/27953088377_f9acddf5c4_m.jpg", "height_s": "240", "width_s": "180", "url_m": "https:\/\/farm2.staticflickr.com\/1732\/27953088377_f9acddf5c4.jpg", "height_m": "500", "width_m": "375", "url_l": "https:\/\/farm2.staticflickr.com\/1732\/27953088377_f9acddf5c4_b.jpg", "height_l": "1024", "width_l": "768" },
      { "id": "27953092017", "owner": "152718875@N08", "secret": "da3c5c4186", "server": "888", "farm": 1, "title": "Kozluk son düzlük ☺️", "ispublic": 1, "isfriend": 0, "isfamily": 0, "url_s": "https:\/\/farm1.staticflickr.com\/888\/27953092017_da3c5c4186_m.jpg", "height_s": "240", "width_s": "180", "url_m": "https:\/\/farm1.staticflickr.com\/888\/27953092017_da3c5c4186.jpg", "height_m": "500", "width_m": "375", "url_l": "https:\/\/farm1.staticflickr.com\/888\/27953092017_da3c5c4186_b.jpg", "height_l": "1024", "width_l": "768" },
      { "id": "27953092257", "owner": "140504161@N03", "secret": "d4e9cdbf00", "server": "888", "farm": 1, "title": "A 2007 Orion  7 Old Generation Hybrid Electric on the Q112", "ispublic": 1, "isfriend": 0, "isfamily": 0, "url_s": "https:\/\/farm1.staticflickr.com\/888\/27953092257_d4e9cdbf00_m.jpg", "height_s": "180", "width_s": "240", "url_m": "https:\/\/farm1.staticflickr.com\/888\/27953092257_d4e9cdbf00.jpg", "height_m": "375", "width_m": "500", "url_l": "https:\/\/farm1.staticflickr.com\/888\/27953092257_d4e9cdbf00_b.jpg", "height_l": "769", "width_l": "1024" },
      { "id": "27953093007", "owner": "157796822@N07", "secret": "5d563afd1b", "server": "883", "farm": 1, "title": "Chardham", "ispublic": 1, "isfriend": 0, "isfamily": 0, "url_s": "https:\/\/farm1.staticflickr.com\/883\/27953093007_5d563afd1b_m.jpg", "height_s": "135", "width_s": "240", "url_m": "https:\/\/farm1.staticflickr.com\/883\/27953093007_5d563afd1b.jpg", "height_m": "281", "width_m": "500", "url_l": "https:\/\/farm1.staticflickr.com\/883\/27953093007_5d563afd1b_b.jpg", "height_l": "576", "width_l": "1024" },
      { "id": "27953094357", "owner": "11922537@N07", "secret": "e09dc324be", "server": "1732", "farm": 2, "title": "_DSC7196", "ispublic": 1, "isfriend": 0, "isfamily": 0, "url_s": "https:\/\/farm2.staticflickr.com\/1732\/27953094357_e09dc324be_m.jpg", "height_s": 100, "width_s": "240", "url_m": "https:\/\/farm2.staticflickr.com\/1732\/27953094357_e09dc324be.jpg", "height_m": "209", "width_m": "500", "url_l": "https:\/\/farm2.staticflickr.com\/1732\/27953094357_e09dc324be_b.jpg", "height_l": "429", "width_l": "1024" },
      { "id": "27953095207", "owner": "40085173@N00", "secret": "0ecf37633c", "server": "1744", "farm": 2, "title": "DSC_0087", "ispublic": 1, "isfriend": 0, "isfamily": 0, "url_s": "https:\/\/farm2.staticflickr.com\/1744\/27953095207_0ecf37633c_m.jpg", "height_s": "135", "width_s": "240", "url_m": "https:\/\/farm2.staticflickr.com\/1744\/27953095207_0ecf37633c.jpg", "height_m": "281", "width_m": "500", "url_l": "https:\/\/farm2.staticflickr.com\/1744\/27953095207_0ecf37633c_b.jpg", "height_l": "576", "width_l": "1024" },
      { "id": "28948998578", "owner": "146889411@N02", "secret": "be83c05e7d", "server": "1741", "farm": 2, "title": "Anaya “se chingó a todo el mundo para llegar” a la candidatura: Castañeda al NYT", "ispublic": 1, "isfriend": 0, "isfamily": 0, "url_s": "https:\/\/farm2.staticflickr.com\/1741\/28948998578_be83c05e7d_m.jpg", "height_s": "136", "width_s": "240", "url_m": "https:\/\/farm2.staticflickr.com\/1741\/28948998578_be83c05e7d.jpg", "height_m": "283", "width_m": "500" },
      { "id": "28948999398", "owner": "142395523@N03", "secret": "b6b6600b1c", "server": "1741", "farm": 2, "title": "_DSC7020.jpg", "ispublic": 1, "isfriend": 0, "isfamily": 0, "url_s": "https:\/\/farm2.staticflickr.com\/1741\/28948999398_b6b6600b1c_m.jpg", "height_s": "160", "width_s": "240", "url_m": "https:\/\/farm2.staticflickr.com\/1741\/28948999398_b6b6600b1c.jpg", "height_m": "334", "width_m": "500", "url_l": "https:\/\/farm2.staticflickr.com\/1741\/28948999398_b6b6600b1c_b.jpg", "height_l": "684", "width_l": "1024" },
      { "id": "28949005738", "owner": "33528710@N07", "secret": "b671852984", "server": "1753", "farm": 2, "title": "balcony", "ispublic": 1, "isfriend": 0, "isfamily": 0, "url_s": "https:\/\/farm2.staticflickr.com\/1753\/28949005738_b671852984_m.jpg", "height_s": "160", "width_s": "240", "url_m": "https:\/\/farm2.staticflickr.com\/1753\/28949005738_b671852984.jpg", "height_m": "333", "width_m": "500", "url_l": "https:\/\/farm2.staticflickr.com\/1753\/28949005738_b671852984_b.jpg", "height_l": "683", "width_l": "1024" },
      { "id": "28949006548", "owner": "157793990@N02", "secret": "3144fee6db", "server": "1730", "farm": 2, "title": "Vancouver, British Columbia", "ispublic": 1, "isfriend": 0, "isfamily": 0, "url_s": "https:\/\/farm2.staticflickr.com\/1730\/28949006548_3144fee6db_m.jpg", "height_s": "160", "width_s": "240", "url_m": "https:\/\/farm2.staticflickr.com\/1730\/28949006548_3144fee6db.jpg", "height_m": "333", "width_m": "500", "url_l": "https:\/\/farm2.staticflickr.com\/1730\/28949006548_3144fee6db_b.jpg", "height_l": "683", "width_l": "1024" },
      { "id": "28949009028", "owner": "38714066@N00", "secret": "dbe992f0b5", "server": "896", "farm": 1, "title": "Union National Bank Little Rock, AR", "ispublic": 1, "isfriend": 0, "isfamily": 0, "url_s": "https:\/\/farm1.staticflickr.com\/896\/28949009028_dbe992f0b5_m.jpg", "height_s": "171", "width_s": "240", "url_m": "https:\/\/farm1.staticflickr.com\/896\/28949009028_dbe992f0b5.jpg", "height_m": "357", "width_m": "500", "url_l": "https:\/\/farm1.staticflickr.com\/896\/28949009028_dbe992f0b5_b.jpg", "height_l": "731", "width_l": "1024" },
      { "id": "28949010808", "owner": "79660381@N05", "secret": "8918fddc12", "server": "1759", "farm": 2, "title": "Hvr-A77-08166", "ispublic": 1, "isfriend": 0, "isfamily": 0, "url_s": "https:\/\/farm2.staticflickr.com\/1759\/28949010808_8918fddc12_m.jpg", "height_s": "160", "width_s": "240", "url_m": "https:\/\/farm2.staticflickr.com\/1759\/28949010808_8918fddc12.jpg", "height_m": "333", "width_m": "500", "url_l": "https:\/\/farm2.staticflickr.com\/1759\/28949010808_8918fddc12_b.jpg", "height_l": "683", "width_l": "1024" },
      { "id": "28949011488", "owner": "50962162@N07", "secret": "58d2d0d58f", "server": "1722", "farm": 2, "title": "M58A3081.jpg", "ispublic": 1, "isfriend": 0, "isfamily": 0, "url_s": "https:\/\/farm2.staticflickr.com\/1722\/28949011488_58d2d0d58f_m.jpg", "height_s": "160", "width_s": "240", "url_m": "https:\/\/farm2.staticflickr.com\/1722\/28949011488_58d2d0d58f.jpg", "height_m": "333", "width_m": "500", "url_l": "https:\/\/farm2.staticflickr.com\/1722\/28949011488_58d2d0d58f_b.jpg", "height_l": "683", "width_l": "1024" },
      { "id": "28949012278", "owner": "142427411@N02", "secret": "2295deee9d", "server": "1733", "farm": 2, "title": "FB_IMG_1529096419017", "ispublic": 1, "isfriend": 0, "isfamily": 0, "url_s": "https:\/\/farm2.staticflickr.com\/1733\/28949012278_2295deee9d_m.jpg", "height_s": "160", "width_s": "240", "url_m": "https:\/\/farm2.staticflickr.com\/1733\/28949012278_2295deee9d.jpg", "height_m": "333", "width_m": "500", "url_l": "https:\/\/farm2.staticflickr.com\/1733\/28949012278_2295deee9d_b.jpg", "height_l": "683", "width_l": "1024" },
      { "id": "28949012498", "owner": "157812452@N07", "secret": "c90d3ef6fa", "server": "1744", "farm": 2, "title": "DSC_0518.jpg", "ispublic": 1, "isfriend": 0, "isfamily": 0, "url_s": "https:\/\/farm2.staticflickr.com\/1744\/28949012498_c90d3ef6fa_m.jpg", "height_s": "160", "width_s": "240", "url_m": "https:\/\/farm2.staticflickr.com\/1744\/28949012498_c90d3ef6fa.jpg", "height_m": "333", "width_m": "500", "url_l": "https:\/\/farm2.staticflickr.com\/1744\/28949012498_c90d3ef6fa_b.jpg", "height_l": "683", "width_l": "1024" },
      { "id": "41011749610", "owner": "129687010@N02", "secret": "127d645fde", "server": "876", "farm": 1, "title": "Quaint courtyard 💚", "ispublic": 1, "isfriend": 0, "isfamily": 0, "url_s": "https:\/\/farm1.staticflickr.com\/876\/41011749610_127d645fde_m.jpg", "height_s": "240", "width_s": "140", "url_m": "https:\/\/farm1.staticflickr.com\/876\/41011749610_127d645fde.jpg", "height_m": "500", "width_m": "292", "url_l": "https:\/\/farm1.staticflickr.com\/876\/41011749610_127d645fde_b.jpg", "height_l": "1024", "width_l": "598" },
      { "id": "41011750370", "owner": "29131867@N06", "secret": "8a042c5fee", "server": "1723", "farm": 2, "title": "That's no ordinary rabbit", "ispublic": 1, "isfriend": 0, "isfamily": 0, "url_s": "https:\/\/farm2.staticflickr.com\/1723\/41011750370_8a042c5fee_m.jpg", "height_s": "160", "width_s": "240", "url_m": "https:\/\/farm2.staticflickr.com\/1723\/41011750370_8a042c5fee.jpg", "height_m": "333", "width_m": "500", "url_l": "https:\/\/farm2.staticflickr.com\/1723\/41011750370_8a042c5fee_b.jpg", "height_l": "683", "width_l": "1024" },
      { "id": "41011750910", "owner": "10193086@N08", "secret": "432fe81d4d", "server": "1758", "farm": 2, "title": "2018-06-16_07-04-13", "ispublic": 1, "isfriend": 0, "isfamily": 0, "url_s": "https:\/\/farm2.staticflickr.com\/1758\/41011750910_432fe81d4d_m.jpg", "height_s": "240", "width_s": "174", "url_m": "https:\/\/farm2.staticflickr.com\/1758\/41011750910_432fe81d4d.jpg", "height_m": "500", "width_m": "363", "url_l": "https:\/\/farm2.staticflickr.com\/1758\/41011750910_432fe81d4d_b.jpg", "height_l": "1024", "width_l": "744" },
      { "id": "41011750980", "owner": "165204837@N06", "secret": "2996d905e2", "server": "876", "farm": 1, "title": "Cardio Vasculaire : #womensworkout #workout #femalefitness Réparez et partagez si cette séance d&#39;entraînement vous a donné ...", "ispublic": 1, "isfriend": 0, "isfamily": 0, "url_s": "https:\/\/farm1.staticflickr.com\/876\/41011750980_2996d905e2_m.jpg", "height_s": "240", "width_s": 82, "url_m": "https:\/\/farm1.staticflickr.com\/876\/41011750980_2996d905e2.jpg", "height_m": "500", "width_m": "170", "url_l": "https:\/\/farm1.staticflickr.com\/876\/41011750980_2996d905e2_b.jpg", "height_l": "1024", "width_l": "348" },
      { "id": "41011751600", "owner": "34298655@N02", "secret": "9dfe4face1", "server": "1724", "farm": 2, "title": "Supp 19'", "ispublic": 1, "isfriend": 0, "isfamily": 0, "url_s": "https:\/\/farm2.staticflickr.com\/1724\/41011751600_9dfe4face1_m.jpg", "height_s": 51, "width_s": "240", "url_m": "https:\/\/farm2.staticflickr.com\/1724\/41011751600_9dfe4face1.jpg", "height_m": "107", "width_m": "500", "url_l": "https:\/\/farm2.staticflickr.com\/1724\/41011751600_9dfe4face1_b.jpg", "height_l": "219", "width_l": "1024" },
      { "id": "41011753590", "owner": "134963267@N06", "secret": "176d1972bb", "server": "887", "farm": 1, "title": "Do wakacji zostało 4 dni 😀👍👌🐬🐟🐠👙🌞🍹😎 już mamy gości w domkach bad morzem Nadmorska Oaza Jarosławiec Jezierzany noclegi apartamenty www.nadmorskaoaza.pl Zapr", "ispublic": 1, "isfriend": 0, "isfamily": 0, "url_s": "https:\/\/farm1.staticflickr.com\/887\/41011753590_176d1972bb_m.jpg", "height_s": "240", "width_s": "240", "url_m": "https:\/\/farm1.staticflickr.com\/887\/41011753590_176d1972bb.jpg", "height_m": "500", "width_m": "500", "url_l": "https:\/\/farm1.staticflickr.com\/887\/41011753590_176d1972bb_b.jpg", "height_l": "1024", "width_l": "1024" },
      { "id": "41011754570", "owner": "143220541@N07", "secret": "8c67532b7d", "server": "1739", "farm": 2, "title": "Redfish", "ispublic": 1, "isfriend": 0, "isfamily": 0, "url_s": "https:\/\/farm2.staticflickr.com\/1739\/41011754570_8c67532b7d_m.jpg", "height_s": "135", "width_s": "240", "url_m": "https:\/\/farm2.staticflickr.com\/1739\/41011754570_8c67532b7d.jpg", "height_m": "281", "width_m": "500", "url_l": "https:\/\/farm2.staticflickr.com\/1739\/41011754570_8c67532b7d_b.jpg", "height_l": "576", "width_l": "1024" },
      { "id": "41011757090", "owner": "87012937@N00", "secret": "0cc1e59680", "server": "1726", "farm": 2, "title": "Findhorn", "ispublic": 1, "isfriend": 0, "isfamily": 0, "url_s": "https:\/\/farm2.staticflickr.com\/1726\/41011757090_0cc1e59680_m.jpg", "height_s": "180", "width_s": "240", "url_m": "https:\/\/farm2.staticflickr.com\/1726\/41011757090_0cc1e59680.jpg", "height_m": "375", "width_m": "500", "url_l": "https:\/\/farm2.staticflickr.com\/1726\/41011757090_0cc1e59680_b.jpg", "height_l": "768", "width_l": "1024" },
      { "id": "41011758500", "owner": "158833869@N02", "secret": "14647507e9", "server": "1743", "farm": 2, "title": 09, "ispublic": 1, "isfriend": 0, "isfamily": 0, "url_s": "https:\/\/farm2.staticflickr.com\/1743\/41011758500_14647507e9_m.jpg", "height_s": "240", "width_s": "155", "url_m": "https:\/\/farm2.staticflickr.com\/1743\/41011758500_14647507e9.jpg", "height_m": "500", "width_m": "322", "url_l": "https:\/\/farm2.staticflickr.com\/1743\/41011758500_14647507e9_b.jpg", "height_l": "1024", "width_l": "659" },
      { "id": "41921274335", "owner": "163721225@N07", "secret": "56aac1120c", "server": "895", "farm": 1, "title": "open June 15, 2018 at 11:55PM -- open -- via Facebook ift.tt\/2K0HCGx", "ispublic": 1, "isfriend": 0, "isfamily": 0, "url_s": "https:\/\/farm1.staticflickr.com\/895\/41921274335_56aac1120c_m.jpg", "height_s": "240", "width_s": "240", "url_m": "https:\/\/farm1.staticflickr.com\/895\/41921274335_56aac1120c.jpg", "height_m": "500", "width_m": "500", "url_l": "https:\/\/farm1.staticflickr.com\/895\/41921274335_56aac1120c_b.jpg", "height_l": "720", "width_l": "720" },
      { "id": "41921283255", "owner": "99562773@N07", "secret": "d4230e2425", "server": "1760", "farm": 2, "title": "", "ispublic": 1, "isfriend": 0, "isfamily": 0, "url_s": "https:\/\/farm2.staticflickr.com\/1760\/41921283255_d4230e2425_m.jpg", "height_s": "180", "width_s": "240", "url_m": "https:\/\/farm2.staticflickr.com\/1760\/41921283255_d4230e2425.jpg", "height_m": "375", "width_m": "500", "url_l": "https:\/\/farm2.staticflickr.com\/1760\/41921283255_d4230e2425_b.jpg", "height_l": "768", "width_l": "1024" },
      { "id": "42104499174", "owner": "161199466@N06", "secret": "e2f565b3b4", "server": "1734", "farm": 2, "title": "REASON WHY CART IS DISABLED..!! Fortnite Daily Best Moments Ep.445 Fortnite Battle Royale Funny", "ispublic": 1, "isfriend": 0, "isfamily": 0, "url_s": "https:\/\/farm2.staticflickr.com\/1734\/42104499174_e2f565b3b4_m.jpg", "height_s": "180", "width_s": "240", "url_m": "https:\/\/farm2.staticflickr.com\/1734\/42104499174_e2f565b3b4.jpg", "height_m": "360", "width_m": "480" },
      { "id": "42104501714", "owner": "158241511@N07", "secret": "b2f68cc220", "server": "1742", "farm": 2, "title": "Happy #FishyFriday! Slender Sunfish (Ranzania laevis). #SciArt by Johann Friedrich Hennig for Marcus Bloch, Systema Ichthyologiae Iconibus CX Illustratum (1801). View more in #BHLIb: https:\/\/ift.tt\/2JJMlNv _________________________________________________", "ispublic": 1, "isfriend": 0, "isfamily": 0, "url_s": "https:\/\/farm2.staticflickr.com\/1742\/42104501714_b2f68cc220_m.jpg", "height_s": "146", "width_s": "240", "url_m": "https:\/\/farm2.staticflickr.com\/1742\/42104501714_b2f68cc220.jpg", "height_m": "304", "width_m": "500" },
      { "id": "42104503034", "owner": "158870016@N06", "secret": "e2800ff521", "server": "1735", "farm": 2, "title": "Helen Keller Quote world moved only", "ispublic": 1, "isfriend": 0, "isfamily": 0, "url_s": "https:\/\/farm2.staticflickr.com\/1735\/42104503034_e2800ff521_m.jpg", "height_s": "183", "width_s": "240", "url_m": "https:\/\/farm2.staticflickr.com\/1735\/42104503034_e2800ff521.jpg", "height_m": "381", "width_m": "500", "url_l": "https:\/\/farm2.staticflickr.com\/1735\/42104503034_e2800ff521_b.jpg", "height_l": "548", "width_l": "720" },
      { "id": "42104503204", "owner": "123597211@N03", "secret": "06fddb1619", "server": "1733", "farm": 2, "title": "Sulawesi-Hirscheber (Lat. Babyrousa celebensis)", "ispublic": 1, "isfriend": 0, "isfamily": 0, "url_s": "https:\/\/farm2.staticflickr.com\/1733\/42104503204_06fddb1619_m.jpg", "height_s": "160", "width_s": "240", "url_m": "https:\/\/farm2.staticflickr.com\/1733\/42104503204_06fddb1619.jpg", "height_m": "333", "width_m": "500", "url_l": "https:\/\/farm2.staticflickr.com\/1733\/42104503204_06fddb1619_b.jpg", "height_l": "683", "width_l": "1024" },
      { "id": "42104503464", "owner": "14614687@N04", "secret": "3ec98db1b4", "server": "1745", "farm": 2, "title": "IMG_0487.jpg", "ispublic": 1, "isfriend": 0, "isfamily": 0, "url_s": "https:\/\/farm2.staticflickr.com\/1745\/42104503464_3ec98db1b4_m.jpg", "height_s": "160", "width_s": "240", "url_m": "https:\/\/farm2.staticflickr.com\/1745\/42104503464_3ec98db1b4.jpg", "height_m": "333", "width_m": "500", "url_l": "https:\/\/farm2.staticflickr.com\/1745\/42104503464_3ec98db1b4_b.jpg", "height_l": "683", "width_l": "1024" },
      { "id": "42104503504", "owner": "148598376@N06", "secret": "2d81e793ab", "server": "1756", "farm": 2, "title": "", "ispublic": 1, "isfriend": 0, "isfamily": 0, "url_s": "https:\/\/farm2.staticflickr.com\/1756\/42104503504_2d81e793ab_m.jpg", "height_s": "240", "width_s": "180", "url_m": "https:\/\/farm2.staticflickr.com\/1756\/42104503504_2d81e793ab.jpg", "height_m": "500", "width_m": "375", "url_l": "https:\/\/farm2.staticflickr.com\/1756\/42104503504_2d81e793ab_b.jpg", "height_l": "1024", "width_l": "768" },
      { "id": "42104503684", "owner": "155826657@N06", "secret": "911dba2f3c", "server": "1744", "farm": 2, "title": "First Harvest - Beans", "ispublic": 1, "isfriend": 0, "isfamily": 0, "url_s": "https:\/\/farm2.staticflickr.com\/1744\/42104503684_911dba2f3c_m.jpg", "height_s": "240", "width_s": "180", "url_m": "https:\/\/farm2.staticflickr.com\/1744\/42104503684_911dba2f3c.jpg", "height_m": "500", "width_m": "375", "url_l": "https:\/\/farm2.staticflickr.com\/1744\/42104503684_911dba2f3c_b.jpg", "height_l": "1024", "width_l": "768" },
      { "id": "42104503754", "owner": "44062888@N06", "secret": "99c1404c43", "server": "1734", "farm": 2, "title": "2018-06-15_10-59-55", "ispublic": 1, "isfriend": 0, "isfamily": 0, "url_s": "https:\/\/farm2.staticflickr.com\/1734\/42104503754_99c1404c43_m.jpg", "height_s": "180", "width_s": "240", "url_m": "https:\/\/farm2.staticflickr.com\/1734\/42104503754_99c1404c43.jpg", "height_m": "375", "width_m": "500", "url_l": "https:\/\/farm2.staticflickr.com\/1734\/42104503754_99c1404c43_b.jpg", "height_l": "768", "width_l": "1024" },
      { "id": "42104504024", "owner": "134685172@N02", "secret": "c542eb60c4", "server": "1746", "farm": 2, "title": "Snap Dragons", "ispublic": 1, "isfriend": 0, "isfamily": 0, "url_s": "https:\/\/farm2.staticflickr.com\/1746\/42104504024_c542eb60c4_m.jpg", "height_s": "240", "width_s": "180", "url_m": "https:\/\/farm2.staticflickr.com\/1746\/42104504024_c542eb60c4.jpg", "height_m": "500", "width_m": "375", "url_l": "https:\/\/farm2.staticflickr.com\/1746\/42104504024_c542eb60c4_b.jpg", "height_l": "1024", "width_l": "768" },
      { "id": "42104505324", "owner": "90535065@N03", "secret": "55e5bfef90", "server": "899", "farm": 1, "title": "test123", "ispublic": 1, "isfriend": 0, "isfamily": 0, "url_s": "https:\/\/farm1.staticflickr.com\/899\/42104505324_55e5bfef90_m.jpg", "height_s": "160", "width_s": "240", "url_m": "https:\/\/farm1.staticflickr.com\/899\/42104505324_55e5bfef90.jpg", "height_m": "334", "width_m": "500" },
      { "id": "42773333812", "owner": "69831549@N00", "secret": "f7a68c03d9", "server": "1731", "farm": 2, "title": "", "ispublic": 1, "isfriend": 0, "isfamily": 0, "url_s": "https:\/\/farm2.staticflickr.com\/1731\/42773333812_f7a68c03d9_m.jpg", "height_s": "180", "width_s": "240", "url_m": "https:\/\/farm2.staticflickr.com\/1731\/42773333812_f7a68c03d9.jpg", "height_m": "375", "width_m": "500", "url_l": "https:\/\/farm2.staticflickr.com\/1731\/42773333812_f7a68c03d9_b.jpg", "height_l": "768", "width_l": "1024" },
      { "id": "42773334852", "owner": "127843625@N02", "secret": "53efc77c1a", "server": "876", "farm": 1, "title": "Cooking oil.", "ispublic": 1, "isfriend": 0, "isfamily": 0, "url_s": "https:\/\/farm1.staticflickr.com\/876\/42773334852_53efc77c1a_m.jpg", "height_s": "240", "width_s": "180", "url_m": "https:\/\/farm1.staticflickr.com\/876\/42773334852_53efc77c1a.jpg", "height_m": "500", "width_m": "375", "url_l": "https:\/\/farm1.staticflickr.com\/876\/42773334852_53efc77c1a_b.jpg", "height_l": "1024", "width_l": "768" },
      { "id": "42773335142", "owner": "91738036@N07", "secret": "11e46b0247", "server": "1745", "farm": 2, "title": "Huntingdon Castle,  Ireland.   Family home with dogs and chickens.", "ispublic": 1, "isfriend": 0, "isfamily": 0, "url_s": "https:\/\/farm2.staticflickr.com\/1745\/42773335142_11e46b0247_m.jpg", "height_s": "239", "width_s": "240", "url_m": "https:\/\/farm2.staticflickr.com\/1745\/42773335142_11e46b0247.jpg", "height_m": "498", "width_m": "500", "url_l": "https:\/\/farm2.staticflickr.com\/1745\/42773335142_11e46b0247_b.jpg", "height_l": "1020", "width_l": "1024" },
      { "id": "42773337382", "owner": "157408954@N06", "secret": "0bc5abed35", "server": "1722", "farm": 2, "title": "", "ispublic": 1, "isfriend": 0, "isfamily": 0, "url_s": "https:\/\/farm2.staticflickr.com\/1722\/42773337382_0bc5abed35_m.jpg", "height_s": "159", "width_s": "240", "url_m": "https:\/\/farm2.staticflickr.com\/1722\/42773337382_0bc5abed35.jpg", "height_m": "332", "width_m": "500", "url_l": "https:\/\/farm2.staticflickr.com\/1722\/42773337382_0bc5abed35_b.jpg", "height_l": "680", "width_l": "1024" },
      { "id": "42773339172", "owner": "55589102@N00", "secret": "f26a2da0a1", "server": "1758", "farm": 2, "title": "IMG_20180521_140049", "ispublic": 1, "isfriend": 0, "isfamily": 0, "url_s": "https:\/\/farm2.staticflickr.com\/1758\/42773339172_f26a2da0a1_m.jpg", "height_s": "180", "width_s": "240", "url_m": "https:\/\/farm2.staticflickr.com\/1758\/42773339172_f26a2da0a1.jpg", "height_m": "375", "width_m": "500", "url_l": "https:\/\/farm2.staticflickr.com\/1758\/42773339172_f26a2da0a1_b.jpg", "height_l": "768", "width_l": "1024" },
      { "id": "42822122091", "owner": "133957069@N07", "secret": "4b8e271c88", "server": "1723", "farm": 2, "title": "Camera", "ispublic": 1, "isfriend": 0, "isfamily": 0, "url_s": "https:\/\/farm2.staticflickr.com\/1723\/42822122091_4b8e271c88_m.jpg", "height_s": "135", "width_s": "240", "url_m": "https:\/\/farm2.staticflickr.com\/1723\/42822122091_4b8e271c88.jpg", "height_m": "281", "width_m": "500", "url_l": "https:\/\/farm2.staticflickr.com\/1723\/42822122091_4b8e271c88_b.jpg", "height_l": "576", "width_l": "1024" },
      { "id": "42822122651", "owner": "89442008@N00", "secret": "5a0e594639", "server": "1738", "farm": 2, "title": "Happy Birthday Kelly!", "ispublic": 1, "isfriend": 0, "isfamily": 0, "url_s": "https:\/\/farm2.staticflickr.com\/1738\/42822122651_5a0e594639_m.jpg", "height_s": "240", "width_s": "240", "url_m": "https:\/\/farm2.staticflickr.com\/1738\/42822122651_5a0e594639.jpg", "height_m": "500", "width_m": "500" },
      { "id": "42822122891", "owner": "162562273@N04", "secret": "d84d385072", "server": "1723", "farm": 2, "title": "Cardio Vasculaire : #womensworkout #workout #femalefitness Réparez et partagez si cette séance d&#39;entraînement vous a donné ...", "ispublic": 1, "isfriend": 0, "isfamily": 0, "url_s": "https:\/\/farm2.staticflickr.com\/1723\/42822122891_d84d385072_m.jpg", "height_s": "240", "width_s": 82, "url_m": "https:\/\/farm2.staticflickr.com\/1723\/42822122891_d84d385072.jpg", "height_m": "500", "width_m": "170", "url_l": "https:\/\/farm2.staticflickr.com\/1723\/42822122891_d84d385072_b.jpg", "height_l": "1024", "width_l": "348" },
      { "id": "42822123911", "owner": "143986086@N08", "secret": "05d35ff87c", "server": "1758", "farm": 2, "title": "J. Greene on the Scene-201.jpg", "ispublic": 1, "isfriend": 0, "isfamily": 0, "url_s": "https:\/\/farm2.staticflickr.com\/1758\/42822123911_05d35ff87c_m.jpg", "height_s": "160", "width_s": "240", "url_m": "https:\/\/farm2.staticflickr.com\/1758\/42822123911_05d35ff87c.jpg", "height_m": "333", "width_m": "500", "url_l": "https:\/\/farm2.staticflickr.com\/1758\/42822123911_05d35ff87c_b.jpg", "height_l": "681", "width_l": "1024" },
      { "id": "42822125951", "owner": "10194419@N00", "secret": "9e9eddaccf", "server": "899", "farm": 1, "title": "OldenCam", "ispublic": 1, "isfriend": 0, "isfamily": 0, "url_s": "https:\/\/farm1.staticflickr.com\/899\/42822125951_9e9eddaccf_m.jpg", "height_s": "136", "width_s": "240", "url_m": "https:\/\/farm1.staticflickr.com\/899\/42822125951_9e9eddaccf.jpg", "height_m": "283", "width_m": "500", "url_l": "https:\/\/farm1.staticflickr.com\/899\/42822125951_9e9eddaccf_b.jpg", "height_l": "579", "width_l": "1024" },
      { "id": "42822127511", "owner": "156923452@N02", "secret": "f43caa7b8b", "server": "1747", "farm": 2, "title": "warning mail", "ispublic": 1, "isfriend": 0, "isfamily": 0, "url_s": "https:\/\/farm2.staticflickr.com\/1747\/42822127511_f43caa7b8b_m.jpg", "height_s": "134", "width_s": "240", "url_m": "https:\/\/farm2.staticflickr.com\/1747\/42822127511_f43caa7b8b.jpg", "height_m": "224", "width_m": "400" },
      { "id": "42822128771", "owner": "149667919@N02", "secret": "bf2a26b168", "server": "875", "farm": 1, "title": "u3HjInP", "ispublic": 1, "isfriend": 0, "isfamily": 0, "url_s": "https:\/\/farm1.staticflickr.com\/875\/42822128771_bf2a26b168_m.jpg", "height_s": "160", "width_s": "240", "url_m": "https:\/\/farm1.staticflickr.com\/875\/42822128771_bf2a26b168.jpg", "height_m": "333", "width_m": "500", "url_l": "https:\/\/farm1.staticflickr.com\/875\/42822128771_bf2a26b168_b.jpg", "height_l": "683", "width_l": "1024" },
      { "id": "42822130771", "owner": "96140784@N06", "secret": "f6a33957a5", "server": "1729", "farm": 2, "title": "IMGP0610.jpg", "ispublic": 1, "isfriend": 0, "isfamily": 0, "url_s": "https:\/\/farm2.staticflickr.com\/1729\/42822130771_f6a33957a5_m.jpg", "height_s": "240", "width_s": "159", "url_m": "https:\/\/farm2.staticflickr.com\/1729\/42822130771_f6a33957a5.jpg", "height_m": "500", "width_m": "331", "url_l": "https:\/\/farm2.staticflickr.com\/1729\/42822130771_f6a33957a5_b.jpg", "height_l": "1024", "width_l": "678" },
      { "id": "42822132241", "owner": "158981901@N07", "secret": "8fca592079", "server": "884", "farm": 1, "title": "_MG_0058", "ispublic": 1, "isfriend": 0, "isfamily": 0, "url_s": "https:\/\/farm1.staticflickr.com\/884\/42822132241_8fca592079_m.jpg", "height_s": "160", "width_s": "240", "url_m": "https:\/\/farm1.staticflickr.com\/884\/42822132241_8fca592079.jpg", "height_m": "333", "width_m": "500", "url_l": "https:\/\/farm1.staticflickr.com\/884\/42822132241_8fca592079_b.jpg", "height_l": "683", "width_l": "1024" }
    ] }, "stat": "ok" }
